[
  {
    "name": "New York City",
    "score": 67.28
  },
  {
    "name": "Norwood",
    "score": 67.33
  },
  {
    "name": "Marlborough",
    "score": 67.33
  },
  {
    "name": "Woonsocket",
    "score": 67.33
  },
  {
    "name": "Lowell",
    "score": 67.33
  },
  {
    "name": "Boston",
    "score": 67.33
  },
  {
    "name": "Zürich",
    "score": 68.81
  },
  {
    "name": "Burlington",
    "score": 69.3
  },
  {
    "name": "Hamilton",
    "score": 69.3
  },
  {
    "name": "London",
    "score": 69.51
  }
]